{  0 app, 1 Above_the_Fold, 2 Android, 3 Phone, 4 IDN, 5 1, 6 1, 14 1, 122 1, 169 0.17, 170 won}
{  0 app, 1 Above_the_Fold, 2 Android, 3 Phone, 4 IDN, 5 2, 6 1, 116 1, 169 0.17, 170 won}
{  0 app, 1 Above_the_Fold, 2 Android, 3 Phone, 4 IDN, 5 2, 6 1, 14 1, 110 1, 111 1, 169 0.13, 170 lost}
{  0 app, 1 Above_the_Fold, 2 iOS, 3 Mobile_Tablet, 4 IDN, 5 1, 6 1, 116 1, 169 0.14, 170 won}
{  0 app, 1 Above_the_Fold, 2 Android, 3 Mobile_Tablet, 4 USA, 5 2, 7 1, 11 1, 15 1, 112 1, 113 1, 169 0.05, 170 lost}
{  0 app, 1 Above_the_Fold, 2 Android, 3 Tablet, 4 USA, 5 2, 10 1, 112 1, 113 1, 169 0.07, 170 lost}
{  0 app, 1 Footer, 2 Android, 3 Mobile_Tablet, 4 USA, 5 2, 7 1, 112 1, 113 1, 169 0.05, 170 lost}
{  0 app, 1 Above_the_Fold, 2 iOS, 3 Mobile_Tablet, 4 MYS, 5 2, 6 1, 125 1, 133 1, 169 0.1, 170 lost}
{  0 app, 1 Above_the_Fold, 2 Android, 3 Phone, 4 IDN, 5 2, 6 1, 110 1, 111 1, 169 0.13, 170 lost}
{  0 app, 1 Unknown, 2 iOS, 3 Mobile_Tablet, 4 IDN, 5 1, 8 1, 116 1, 117 1, 169 0.16, 170 won}
{  0 app, 1 Above_the_Fold, 2 Android, 3 Phone, 4 IDN, 5 2, 6 1, 110 1, 111 1, 169 0.18, 170 lost}
{  0 app, 1 Above_the_Fold, 2 iOS, 3 Mobile_Tablet, 4 USA, 5 2, 10 1, 128 1, 169 1.35, 170 won}
{  0 app, 1 Above_the_Fold, 2 Android, 3 Phone, 4 IDN, 5 2, 6 1, 116 1, 169 0.07, 170 won}
{  0 app, 1 Footer, 2 Android, 3 Tablet, 4 IDN, 5 1, 7 1, 110 1, 142 1, 169 0.07, 170 won}
{  0 app, 1 Unknown, 2 Android, 3 Phone, 4 IDN, 5 2, 6 1, 116 1, 169 0.15, 170 lost}
{  0 app, 1 Above_the_Fold, 2 Android, 3 Tablet, 4 USA, 5 3, 6 1, 120 1, 123 1, 169 3.68, 170 won}
{  0 app, 1 Above_the_Fold, 2 Android, 3 Phone, 4 IDN, 5 2, 6 1, 116 1, 169 0.39, 170 won}
{  0 app, 1 Above_the_Fold, 2 Android, 3 Phone, 4 IDN, 5 2, 6 1, 110 1, 111 1, 169 0.13, 170 lost}
{  0 app, 1 Above_the_Fold, 2 Android, 3 Mobile_Tablet, 4 USA, 5 2, 13 1, 125 1, 132 1, 169 0.11, 170 won}
{  0 app, 1 Unknown, 2 Android, 3 Tablet, 4 IDN, 5 2, 8 1, 116 1, 117 1, 169 0.02, 170 won}
{  0 app, 1 Above_the_Fold, 2 iOS, 3 Mobile_Tablet, 4 SAU, 5 2, 6 1, 119 1, 121 1, 169 0.15, 170 won}
{  0 site, 1 Unknown, 2 Android, 3 ?, 4 USA, 5 2, 8 1, 18 1, 23 1, 118 1, 169 0.2, 170 lost}
{  0 app, 1 Unknown, 2 Android, 3 Tablet, 4 USA, 5 2, 8 1, 114 1, 115 1, 169 0.02, 170 won}
{  0 app, 1 Above_the_Fold, 2 Android, 3 Phone, 4 IDN, 5 2, 6 1, 127 1, 157 1, 169 0.16, 170 won}
{  0 app, 1 Header, 2 Android, 3 Phone, 4 IDN, 5 1, 6 1, 16 1, 122 1, 169 0.2, 170 won}
{  0 app, 1 Above_the_Fold, 2 Android, 3 Mobile_Tablet, 4 ZAF, 5 2, 8 1, 16 1, 111 1, 120 1, 169 0.09, 170 won}
{  0 app, 1 Above_the_Fold, 2 iOS, 3 Mobile_Tablet, 4 IDN, 5 1, 6 1, 116 1, 117 1, 169 0.16, 170 won}
{  0 app, 1 Above_the_Fold, 2 Android, 3 Mobile_Tablet, 4 IDN, 5 2, 6 1, 110 1, 111 1, 169 0.14, 170 lost}
{  0 app, 1 Footer, 2 Android, 3 Phone, 4 IDN, 5 2, 7 1, 116 1, 169 0.39, 170 won}
{  0 app, 1 Below_the_Fold, 2 iOS, 3 Phone, 4 IDN, 5 1, 7 1, 116 1, 169 0.92, 170 won}
{  0 app, 1 Above_the_Fold, 2 Android, 3 Phone, 4 IDN, 5 2, 6 1, 110 1, 111 1, 169 0.11, 170 lost}
{  0 app, 1 Above_the_Fold, 2 Android, 3 Phone, 4 USA, 5 2, 6 1, 114 1, 115 1, 169 0.02, 170 won}
{  0 app, 1 Above_the_Fold, 2 Android, 3 Mobile_Tablet, 4 IDN, 5 2, 6 1, 110 1, 111 1, 169 0.14, 170 lost}
{  0 app, 1 Above_the_Fold, 2 Android, 3 Phone, 4 GHA, 5 2, 6 1, 139 1, 146 1, 169 0.11, 170 won}
{  0 app, 1 Unknown, 2 iOS, 3 Mobile_Tablet, 4 TWN, 5 2, 15 1, 119 1, 121 1, 169 0.7, 170 won}
{  0 app, 1 Unknown, 2 Android, 3 Mobile_Tablet, 4 USA, 5 2, 7 1, 114 1, 126 1, 169 0.51, 170 won}
{  0 app, 1 Unknown, 2 iOS, 3 Phone, 4 IDN, 5 1, 8 1, 116 1, 169 0.14, 170 won}
{  0 app, 1 Above_the_Fold, 2 Android, 3 Phone, 4 ESP, 5 2, 6 1, 11 1, 18 1, 119 1, 121 1, 169 0.23, 170 won}
{  0 app, 1 Above_the_Fold, 2 Android, 3 Mobile_Tablet, 4 IDN, 5 1, 6 1, 116 1, 169 0.22, 170 won}
{  0 app, 1 Header, 2 Android, 3 Tablet, 4 USA, 5 2, 12 1, 114 1, 115 1, 169 0.02, 170 lost}
{  0 app, 1 Above_the_Fold, 2 Android, 3 Phone, 4 IDN, 5 2, 6 1, 110 1, 111 1, 169 0.02, 170 lost}
{  0 app, 1 Above_the_Fold, 2 Android, 3 Phone, 4 IDN, 5 1, 10 1, 122 1, 169 0.17, 170 won}
{  0 app, 1 Footer, 2 Android, 3 Phone, 4 IDN, 5 2, 7 1, 116 1, 117 1, 169 0.02, 170 lost}
{  0 app, 1 Above_the_Fold, 2 Android, 3 Phone, 4 IDN, 5 2, 6 1, 110 1, 111 1, 169 0.02, 170 lost}
{  0 app, 1 Above_the_Fold, 2 iOS, 3 Phone, 4 IDN, 5 2, 6 1, 116 1, 169 0.05, 170 won}
{  0 app, 1 Footer, 2 Android, 3 Phone, 4 IDN, 5 2, 7 1, 110 1, 111 1, 169 0.11, 170 lost}
{  0 app, 1 Above_the_Fold, 2 Android, 3 Phone, 4 IDN, 5 2, 7 1, 110 1, 111 1, 169 0.1, 170 lost}
{  0 app, 1 Above_the_Fold, 2 Android, 3 Phone, 4 IDN, 5 2, 6 1, 110 1, 111 1, 169 0.02, 170 lost}
{  0 app, 1 Above_the_Fold, 2 iOS, 3 ?, 4 IDN, 5 2, 6 1, 110 1, 111 1, 169 0.13, 170 lost}
{  0 app, 1 Footer, 2 Android, 3 Phone, 4 IDN, 5 2, 7 1, 110 1, 111 1, 169 0.1, 170 lost}
{  0 app, 1 Above_the_Fold, 2 iOS, 3 Mobile_Tablet, 4 IDN, 5 1, 6 1, 116 1, 169 0.14, 170 won}
{  0 app, 1 Above_the_Fold, 2 Android, 3 Phone, 4 IDN, 5 2, 6 1, 116 1, 169 0.51, 170 won}
{  0 app, 1 Above_the_Fold, 2 Android, 3 Mobile_Tablet, 4 USA, 5 2, 6 1, 112 1, 113 1, 169 0.07, 170 lost}
{  0 app, 1 Above_the_Fold, 2 Android, 3 Tablet, 4 USA, 5 3, 10 1, 119 1, 169 4.0, 170 won}
{  0 app, 1 Above_the_Fold, 2 iOS, 3 Phone, 4 IDN, 5 1, 6 1, 116 1, 169 0.14, 170 won}
{  0 app, 1 Above_the_Fold, 2 Android, 3 Phone, 4 USA, 5 2, 6 1, 118 1, 169 0.2, 170 lost}
{  0 app, 1 Above_the_Fold, 2 Android, 3 Phone, 4 ZAF, 5 2, 10 1, 131 1, 169 0.02, 170 won}
{  0 app, 1 Above_the_Fold, 2 iOS, 3 Mobile_Tablet, 4 IDN, 5 2, 6 1, 116 1, 117 1, 169 0.02, 170 lost}
{  0 app, 1 Above_the_Fold, 2 Android, 3 Mobile_Tablet, 4 USA, 5 2, 10 1, 112 1, 113 1, 169 0.07, 170 lost}
{  0 app, 1 Footer, 2 Android, 3 Mobile_Tablet, 4 IDN, 5 2, 7 1, 116 1, 117 1, 169 0.01, 170 won}
{  0 app, 1 Unknown, 2 Android, 3 Phone, 4 IDN, 5 2, 6 1, 110 1, 111 1, 169 0.14, 170 lost}
{  0 site, 1 Unknown, 2 Android, 3 Mobile_Tablet, 4 USA, 5 2, 12 1, 112 1, 113 1, 169 0.07, 170 lost}
{  0 app, 1 Above_the_Fold, 2 Android, 3 Tablet, 4 IDN, 5 2, 10 1, 110 1, 111 1, 169 0.14, 170 lost}
{  0 app, 1 Above_the_Fold, 2 Android, 3 Tablet, 4 USA, 5 2, 8 1, 114 1, 115 1, 169 0.02, 170 won}
{  0 app, 1 Above_the_Fold, 2 Android, 3 Mobile_Tablet, 4 IDN, 5 2, 6 1, 116 1, 169 0.02, 170 won}
{  0 app, 1 Above_the_Fold, 2 Android, 3 Phone, 4 USA, 5 2, 6 1, 114 1, 115 1, 169 0.02, 170 lost}
{  0 app, 1 Footer, 2 Android, 3 Phone, 4 USA, 5 2, 7 1, 9 1, 112 1, 113 1, 169 0.05, 170 lost}
{  0 app, 1 Above_the_Fold, 2 iOS, 3 Mobile_Tablet, 4 IDN, 5 1, 6 1, 7 1, 11 1, 15 1, 116 1, 117 1, 169 0.05, 170 won}
{  0 app, 1 Above_the_Fold, 2 iOS, 3 Mobile_Tablet, 4 USA, 5 2, 6 1, 118 1, 169 0.2, 170 lost}
{  0 app, 1 Footer, 2 Android, 3 Phone, 4 IDN, 5 2, 7 1, 9 1, 116 1, 117 1, 169 0.02, 170 lost}
{  0 app, 1 Above_the_Fold, 2 Android, 3 Phone, 4 USA, 5 2, 6 1, 125 1, 132 1, 169 0.17, 170 won}
{  0 site, 1 Above_the_Fold, 2 iOS, 3 Mobile_Tablet, 4 IDN, 5 2, 6 1, 116 1, 117 1, 169 0.04, 170 won}
{  0 app, 1 Unknown, 2 Android, 3 Mobile_Tablet, 4 USA, 5 2, 6 1, 112 1, 113 1, 169 0.05, 170 lost}
{  0 app, 1 Above_the_Fold, 2 Android, 3 Phone, 4 IDN, 5 2, 6 1, 110 1, 111 1, 169 0.13, 170 lost}
{  0 app, 1 Footer, 2 Android, 3 Mobile_Tablet, 4 USA, 5 2, 13 1, 114 1, 115 1, 169 0.02, 170 lost}
{  0 app, 1 Footer, 2 iOS, 3 Phone, 4 IDN, 5 1, 7 1, 9 1, 116 1, 169 0.14, 170 won}
{  0 app, 1 Above_the_Fold, 2 iOS, 3 Mobile_Tablet, 4 IDN, 5 1, 6 1, 14 1, 116 1, 117 1, 169 0.16, 170 won}
{  0 app, 1 Above_the_Fold, 2 Android, 3 Phone, 4 USA, 5 2, 6 1, 117 1, 169 0.25, 170 won}
{  0 app, 1 Unknown, 2 Android, 3 Phone, 4 IND, 5 2, 8 1, 116 1, 137 1, 144 1, 169 0.26, 170 lost}
{  0 app, 1 Unknown, 2 Android, 3 Mobile_Tablet, 4 IDN, 5 2, 6 1, 110 1, 111 1, 169 0.12, 170 lost}
{  0 app, 1 Above_the_Fold, 2 Android, 3 Mobile_Tablet, 4 IDN, 5 2, 6 1, 10 1, 116 1, 169 0.08, 170 won}
{  0 app, 1 Above_the_Fold, 2 Android, 3 Mobile_Tablet, 4 USA, 5 2, 6 1, 112 1, 113 1, 169 0.07, 170 lost}
{  0 app, 1 Above_the_Fold, 2 Android, 3 Tablet, 4 USA, 5 2, 6 1, 114 1, 115 1, 169 0.02, 170 lost}
{  0 app, 1 Above_the_Fold, 2 Android, 3 Mobile_Tablet, 4 IDN, 5 2, 6 1, 116 1, 117 1, 169 0.02, 170 won}
{  0 app, 1 Above_the_Fold, 2 Android, 3 Phone, 4 IDN, 5 2, 6 1, 110 1, 111 1, 169 0.14, 170 lost}
{  0 app, 1 Above_the_Fold, 2 Android, 3 Mobile_Tablet, 4 IDN, 5 2, 6 1, 116 1, 117 1, 169 0.02, 170 lost}
{  0 app, 1 Footer, 2 Android, 3 Phone, 4 IDN, 5 2, 7 1, 9 1, 110 1, 111 1, 169 0.1, 170 lost}
{  0 app, 1 Above_the_Fold, 2 Android, 3 Mobile_Tablet, 4 USA, 5 2, 6 1, 112 1, 113 1, 169 0.07, 170 lost}
{  0 app, 1 Footer, 2 Android, 3 Mobile_Tablet, 4 USA, 5 2, 7 1, 112 1, 113 1, 169 0.05, 170 lost}
{  0 app, 1 Above_the_Fold, 2 iOS, 3 Phone, 4 IDN, 5 1, 6 1, 116 1, 117 1, 169 0.16, 170 won}
{  0 app, 1 Above_the_Fold, 2 Android, 3 Mobile_Tablet, 4 USA, 5 2, 6 1, 112 1, 113 1, 169 0.04, 170 lost}
{  0 app, 1 Above_the_Fold, 2 Android, 3 Tablet, 4 IDN, 5 1, 6 1, 110 1, 142 1, 169 0.07, 170 lost}
{  0 app, 1 Unknown, 2 Android, 3 Mobile_Tablet, 4 USA, 5 2, 8 1, 112 1, 113 1, 169 0.07, 170 lost}
{  0 app, 1 Unknown, 2 Android, 3 Mobile_Tablet, 4 USA, 5 2, 6 1, 112 1, 113 1, 169 0.07, 170 lost}
{  0 app, 1 Above_the_Fold, 2 Android, 3 Tablet, 4 USA, 5 2, 6 1, 114 1, 115 1, 169 0.02, 170 won}
{  0 app, 1 Above_the_Fold, 2 Android, 3 Phone, 4 USA, 5 2, 6 1, 112 1, 113 1, 169 0.07, 170 lost}
{  0 app, 1 Above_the_Fold, 2 Android, 3 Phone, 4 IDN, 5 1, 10 1, 122 1, 169 0.2, 170 won}
{  0 app, 1 Footer, 2 Android, 3 Phone, 4 USA, 5 2, 7 1, 9 1, 110 1, 130 1, 169 0.58, 170 won}
{  0 app, 1 Above_the_Fold, 2 iOS, 3 Mobile_Tablet, 4 IDN, 5 1, 6 1, 116 1, 169 0.92, 170 won}
{  0 app, 1 Above_the_Fold, 2 Android, 3 Mobile_Tablet, 4 IDN, 5 2, 10 1, 110 1, 111 1, 169 0.02, 170 lost}
{  0 app, 1 Above_the_Fold, 2 Android, 3 Mobile_Tablet, 4 IDN, 5 2, 6 1, 110 1, 111 1, 169 0.11, 170 lost}
{  0 app, 1 Footer, 2 Android, 3 Mobile_Tablet, 4 USA, 5 2, 7 1, 125 1, 132 1, 169 0.17, 170 won}
{  0 app, 1 Footer, 2 Android, 3 Mobile_Tablet, 4 MYS, 5 2, 13 1, 122 1, 169 0.06, 170 won}
{  0 app, 1 Footer, 2 iOS, 3 Mobile_Tablet, 4 IDN, 5 2, 6 1, 14 1, 110 1, 111 1, 169 0.02, 170 lost}
{  0 app, 1 Unknown, 2 iOS, 3 Mobile_Tablet, 4 IDN, 5 2, 8 1, 35 1, 110 1, 111 1, 169 0.02, 170 lost}
{  0 app, 1 Above_the_Fold, 2 Android, 3 Phone, 4 MYS, 5 2, 6 1, 136 1, 148 1, 169 0.47, 170 won}
{  0 app, 1 Above_the_Fold, 2 Android, 3 Phone, 4 IDN, 5 2, 6 1, 110 1, 111 1, 169 0.02, 170 lost}
{  0 app, 1 Footer, 2 Android, 3 Phone, 4 USA, 5 2, 7 1, 116 1, 117 1, 169 0.37, 170 lost}
{  0 app, 1 Above_the_Fold, 2 iOS, 3 Mobile_Tablet, 4 IDN, 5 1, 6 1, 116 1, 117 1, 169 0.16, 170 won}
{  0 app, 1 Above_the_Fold, 2 Android, 3 Phone, 4 IDN, 5 2, 10 1, 116 1, 169 0.04, 170 won}
{  0 app, 1 Above_the_Fold, 2 Android, 3 Phone, 4 IDN, 5 2, 10 1, 11 1, 18 1, 110 1, 111 1, 169 0.11, 170 lost}
{  0 site, 1 Above_the_Fold, 2 Android, 3 Tablet, 4 AUS, 5 1, 13 1, 114 1, 126 1, 169 1.17, 170 won}
{  0 app, 1 Above_the_Fold, 2 Android, 3 Phone, 4 USA, 5 2, 6 1, 114 1, 115 1, 169 0.02, 170 lost}
{  0 app, 1 Footer, 2 Android, 3 Phone, 4 ZAF, 5 2, 7 1, 9 1, 110 1, 169 0.06, 170 won}
{  0 app, 1 Above_the_Fold, 2 Android, 3 Mobile_Tablet, 4 IDN, 5 2, 6 1, 110 1, 111 1, 169 0.12, 170 lost}
{  0 app, 1 Above_the_Fold, 2 iOS, 3 Mobile_Tablet, 4 USA, 5 2, 6 1, 7 1, 11 1, 15 1, 110 1, 127 1, 169 2.21, 170 won}
{  0 app, 1 Footer, 2 iOS, 3 Phone, 4 IDN, 5 1, 7 1, 116 1, 117 1, 169 0.16, 170 won}
{  0 app, 1 Above_the_Fold, 2 Android, 3 Mobile_Tablet, 4 IDN, 5 2, 6 1, 116 1, 117 1, 169 0.01, 170 won}
{  0 app, 1 Above_the_Fold, 2 iOS, 3 Phone, 4 IDN, 5 2, 6 1, 110 1, 111 1, 169 0.02, 170 lost}
{  0 app, 1 Unknown, 2 Android, 3 Mobile_Tablet, 4 USA, 5 2, 15 1, 112 1, 113 1, 169 0.07, 170 won}
{  0 app, 1 Unknown, 2 Android, 3 Phone, 4 IDN, 5 2, 8 1, 116 1, 169 0.91, 170 won}
{  0 app, 1 Above_the_Fold, 2 Android, 3 Mobile_Tablet, 4 USA, 5 2, 7 1, 12 1, 125 1, 132 1, 169 0.11, 170 won}
{  0 app, 1 Above_the_Fold, 2 Android, 3 Phone, 4 USA, 5 2, 7 1, 11 1, 13 1, 15 1, 112 1, 113 1, 169 0.07, 170 lost}
{  0 app, 1 Unknown, 2 Android, 3 Mobile_Tablet, 4 USA, 5 2, 8 1, 112 1, 113 1, 169 0.05, 170 lost}
{  0 app, 1 Footer, 2 Android, 3 Mobile_Tablet, 4 USA, 5 2, 7 1, 112 1, 113 1, 169 0.05, 170 lost}
{  0 app, 1 Footer, 2 Android, 3 Phone, 4 IDN, 5 2, 7 1, 9 1, 110 1, 111 1, 169 0.13, 170 lost}
{  0 app, 1 Above_the_Fold, 2 Android, 3 Phone, 4 IDN, 5 2, 6 1, 110 1, 111 1, 169 0.13, 170 lost}
{  0 app, 1 Above_the_Fold, 2 Android, 3 Phone, 4 IDN, 5 2, 6 1, 14 1, 110 1, 111 1, 169 0.1, 170 lost}
{  0 app, 1 Footer, 2 Android, 3 Phone, 4 IDN, 5 2, 7 1, 110 1, 111 1, 169 0.1, 170 lost}
{  0 app, 1 Above_the_Fold, 2 Android, 3 Mobile_Tablet, 4 USA, 5 2, 6 1, 112 1, 113 1, 169 0.07, 170 lost}
{  0 app, 1 Above_the_Fold, 2 Android, 3 Tablet, 4 IDN, 5 2, 6 1, 110 1, 111 1, 169 0.1, 170 lost}
{  0 app, 1 Above_the_Fold, 2 Android, 3 Mobile_Tablet, 4 USA, 5 2, 6 1, 112 1, 113 1, 169 0.07, 170 lost}
{  0 app, 1 Footer, 2 iOS, 3 Mobile_Tablet, 4 USA, 5 2, 7 1, 9 1, 118 1, 169 0.2, 170 lost}
{  0 app, 1 FullScreen, 2 Android, 3 Mobile_Tablet, 4 USA, 5 2, 6 1, 7 1, 112 1, 113 1, 169 0.07, 170 lost}
{  0 app, 1 Above_the_Fold, 2 iOS, 3 Phone, 4 IDN, 5 2, 6 1, 116 1, 169 0.02, 170 won}
{  0 app, 1 Above_the_Fold, 2 Android, 3 Mobile_Tablet, 4 TWN, 5 2, 6 1, 112 1, 139 1, 169 0.73, 170 won}
{  0 app, 1 Unknown, 2 Android, 3 Tablet, 4 IDN, 5 2, 6 1, 116 1, 169 0.07, 170 won}
{  0 app, 1 Unknown, 2 Android, 3 Tablet, 4 USA, 5 3, 6 1, 119 1, 169 2.99, 170 won}
{  0 app, 1 Footer, 2 Android, 3 Mobile_Tablet, 4 USA, 5 2, 13 1, 114 1, 115 1, 169 0.02, 170 lost}
{  0 app, 1 Above_the_Fold, 2 Android, 3 Phone, 4 IDN, 5 2, 6 1, 116 1, 169 0.08, 170 won}
{  0 app, 1 Unknown, 2 Android, 3 Phone, 4 IDN, 5 2, 6 1, 110 1, 111 1, 169 0.1, 170 lost}
{  0 app, 1 Above_the_Fold, 2 Android, 3 Phone, 4 IDN, 5 2, 6 1, 110 1, 111 1, 169 0.09, 170 lost}
{  0 app, 1 Above_the_Fold, 2 Android, 3 Mobile_Tablet, 4 USA, 5 2, 6 1, 112 1, 113 1, 169 0.05, 170 lost}
{  0 app, 1 Above_the_Fold, 2 iOS, 3 Mobile_Tablet, 4 IDN, 5 1, 6 1, 116 1, 117 1, 169 0.16, 170 won}
{  0 app, 1 Unknown, 2 Android, 3 Phone, 4 USA, 5 2, 8 1, 114 1, 115 1, 169 0.02, 170 lost}
{  0 app, 1 Footer, 2 Android, 3 Mobile_Tablet, 4 CHE, 5 2, 7 1, 9 1, 111 1, 169 1.67, 170 won}
{  0 app, 1 Above_the_Fold, 2 Android, 3 Phone, 4 TWN, 5 2, 6 1, 112 1, 139 1, 169 0.72, 170 won}
{  0 app, 1 Above_the_Fold, 2 Android, 3 Mobile_Tablet, 4 USA, 5 2, 7 1, 12 1, 114 1, 115 1, 169 0.02, 170 lost}
{  0 app, 1 Footer, 2 Android, 3 Mobile_Tablet, 4 USA, 5 2, 7 1, 9 1, 118 1, 169 0.2, 170 lost}
{  0 app, 1 Above_the_Fold, 2 Android, 3 Phone, 4 TWN, 5 2, 6 1, 112 1, 139 1, 169 0.74, 170 won}
{  0 app, 1 Footer, 2 Android, 3 Phone, 4 USA, 5 2, 7 1, 114 1, 115 1, 169 0.02, 170 lost}
{  0 app, 1 Unknown, 2 Android, 3 Phone, 4 USA, 5 2, 8 1, 114 1, 115 1, 169 0.02, 170 lost}
{  0 app, 1 Above_the_Fold, 2 Android, 3 Mobile_Tablet, 4 USA, 5 2, 6 1, 112 1, 113 1, 169 0.07, 170 lost}
{  0 app, 1 Above_the_Fold, 2 Android, 3 Phone, 4 TUR, 5 2, 6 1, 129 1, 169 0.16, 170 won}
{  0 app, 1 Above_the_Fold, 2 Android, 3 Mobile_Tablet, 4 TWN, 5 2, 6 1, 14 1, 119 1, 121 1, 169 0.49, 170 lost}
{  0 site, 1 Above_the_Fold, 2 iOS, 3 Phone, 4 IDN, 5 1, 25 1, 116 1, 117 1, 169 0.14, 170 won}
{  0 app, 1 Above_the_Fold, 2 Android, 3 Phone, 4 USA, 5 2, 6 1, 110 1, 130 1, 169 0.58, 170 won}
{  0 app, 1 Footer, 2 Android, 3 Phone, 4 USA, 5 2, 7 1, 9 1, 114 1, 115 1, 169 0.02, 170 lost}
{  0 app, 1 Above_the_Fold, 2 Android, 3 Mobile_Tablet, 4 USA, 5 2, 6 1, 112 1, 113 1, 169 0.07, 170 lost}
{  0 app, 1 Unknown, 2 Android, 3 Tablet, 4 USA, 5 2, 8 1, 114 1, 126 1, 169 0.5, 170 won}
{  0 app, 1 Unknown, 2 iOS, 3 Mobile_Tablet, 4 IDN, 5 1, 8 1, 116 1, 117 1, 169 0.14, 170 won}
{  0 app, 1 Above_the_Fold, 2 Android, 3 Mobile_Tablet, 4 IDN, 5 2, 6 1, 116 1, 169 0.38, 170 won}
{  0 app, 1 Above_the_Fold, 2 iOS, 3 Mobile_Tablet, 4 IDN, 5 1, 6 1, 116 1, 169 0.14, 170 won}
{  0 app, 1 Above_the_Fold, 2 Android, 3 Mobile_Tablet, 4 IDN, 5 2, 6 1, 110 1, 111 1, 169 0.02, 170 lost}
{  0 app, 1 Footer, 2 Android, 3 Phone, 4 IDN, 5 2, 7 1, 9 1, 116 1, 169 0.51, 170 won}
{  0 app, 1 Above_the_Fold, 2 Android, 3 Mobile_Tablet, 4 IDN, 5 2, 6 1, 110 1, 111 1, 169 0.1, 170 lost}
{  0 app, 1 Unknown, 2 iOS, 3 Mobile_Tablet, 4 IDN, 5 1, 8 1, 116 1, 169 0.92, 170 won}
{  0 app, 1 Above_the_Fold, 2 Android, 3 Phone, 4 IDN, 5 2, 10 1, 110 1, 111 1, 169 0.12, 170 lost}
{  0 site, 1 Header, 2 Android, 3 Phone, 4 USA, 5 2, 6 1, 114 1, 115 1, 169 0.02, 170 lost}
{  0 app, 1 Above_the_Fold, 2 Android, 3 Mobile_Tablet, 4 USA, 5 2, 6 1, 114 1, 115 1, 169 0.02, 170 lost}
{  0 app, 1 Above_the_Fold, 2 Android, 3 Mobile_Tablet, 4 USA, 5 2, 6 1, 114 1, 115 1, 169 0.02, 170 lost}
{  0 app, 1 Above_the_Fold, 2 Android, 3 Phone, 4 IDN, 5 2, 6 1, 110 1, 111 1, 169 0.14, 170 lost}
{  0 app, 1 Unknown, 2 Android, 3 Phone, 4 IDN, 5 2, 8 1, 116 1, 117 1, 169 0.04, 170 won}
{  0 app, 1 Unknown, 2 Android, 3 Phone, 4 USA, 5 2, 6 1, 13 1, 28 1, 32 1, 114 1, 115 1, 169 0.02, 170 lost}
{  0 app, 1 Footer, 2 Android, 3 Phone, 4 IDN, 5 2, 7 1, 116 1, 117 1, 169 0.03, 170 lost}
{  0 app, 1 Unknown, 2 Android, 3 Mobile_Tablet, 4 USA, 5 2, 6 1, 114 1, 126 1, 169 0.51, 170 won}
{  0 app, 1 Above_the_Fold, 2 Android, 3 Mobile_Tablet, 4 SVN, 5 2, 6 1, 129 1, 169 0.1, 170 won}
{  0 app, 1 Footer, 2 Android, 3 Phone, 4 IDN, 5 2, 7 1, 9 1, 116 1, 169 0.09, 170 won}
{  0 app, 1 Footer, 2 Android, 3 Phone, 4 IND, 5 2, 6 1, 8 1, 140 1, 169 0.3, 170 won}
{  0 app, 1 Unknown, 2 Android, 3 Mobile_Tablet, 4 USA, 5 2, 6 1, 114 1, 115 1, 169 0.02, 170 lost}
{  0 app, 1 Footer, 2 Android, 3 Phone, 4 USA, 5 2, 7 1, 9 1, 114 1, 115 1, 169 0.02, 170 lost}
{  0 app, 1 Above_the_Fold, 2 iOS, 3 Mobile_Tablet, 4 IDN, 5 2, 6 1, 110 1, 111 1, 169 0.14, 170 lost}
{  0 app, 1 Unknown, 2 Android, 3 Mobile_Tablet, 4 USA, 5 2, 6 1, 7 1, 11 1, 15 1, 112 1, 113 1, 169 0.07, 170 lost}
{  0 app, 1 Footer, 2 Android, 3 Mobile_Tablet, 4 IDN, 5 2, 6 1, 8 1, 110 1, 111 1, 169 0.02, 170 lost}
{  0 app, 1 Unknown, 2 Android, 3 Phone, 4 ESP, 5 2, 6 1, 119 1, 121 1, 169 0.23, 170 won}
{  0 site, 1 Header, 2 Android, 3 Phone, 4 USA, 5 2, 6 1, 114 1, 115 1, 169 0.02, 170 lost}
{  0 app, 1 Above_the_Fold, 2 Android, 3 Phone, 4 IDN, 5 2, 6 1, 110 1, 111 1, 169 0.13, 170 lost}
{  0 app, 1 Unknown, 2 Android, 3 ?, 4 USA, 5 3, 8 1, 120 1, 123 1, 169 4.0, 170 lost}
{  0 app, 1 Above_the_Fold, 2 iOS, 3 Mobile_Tablet, 4 AUS, 5 2, 10 1, 111 1, 169 0.2, 170 won}
{  0 app, 1 Above_the_Fold, 2 iOS, 3 Phone, 4 IDN, 5 1, 6 1, 116 1, 169 0.14, 170 won}
{  0 app, 1 Above_the_Fold, 2 Android, 3 Phone, 4 IDN, 5 1, 6 1, 116 1, 117 1, 169 0.1, 170 won}
{  0 app, 1 Unknown, 2 Android, 3 Phone, 4 IDN, 5 2, 8 1, 16 1, 116 1, 169 0.08, 170 lost}
{  0 app, 1 Above_the_Fold, 2 iOS, 3 Mobile_Tablet, 4 IDN, 5 1, 6 1, 116 1, 117 1, 169 0.14, 170 won}
{  0 app, 1 Above_the_Fold, 2 Android, 3 Mobile_Tablet, 4 USA, 5 2, 6 1, 112 1, 113 1, 169 0.05, 170 lost}
{  0 app, 1 Above_the_Fold, 2 iOS, 3 Mobile_Tablet, 4 IDN, 5 1, 6 1, 116 1, 117 1, 169 0.16, 170 won}
{  0 app, 1 Above_the_Fold, 2 Android, 3 Mobile_Tablet, 4 TWN, 5 2, 6 1, 119 1, 121 1, 169 0.13, 170 won}
{  0 app, 1 Unknown, 2 Android, 3 Mobile_Tablet, 4 USA, 5 2, 8 1, 118 1, 169 0.2, 170 lost}
{  0 app, 1 Footer, 2 Android, 3 Mobile_Tablet, 4 USA, 5 2, 7 1, 112 1, 113 1, 169 0.07, 170 won}
{  0 app, 1 Footer, 2 iOS, 3 Phone, 4 IDN, 5 1, 7 1, 116 1, 169 0.14, 170 won}
{  0 app, 1 Above_the_Fold, 2 Android, 3 Phone, 4 USA, 5 2, 6 1, 110 1, 117 1, 169 0.25, 170 lost}
{  0 app, 1 Unknown, 2 Android, 3 Phone, 4 IDN, 5 1, 6 1, 116 1, 117 1, 169 0.11, 170 won}
{  0 app, 1 Above_the_Fold, 2 Android, 3 Phone, 4 USA, 5 2, 10 1, 112 1, 113 1, 169 0.07, 170 lost}
{  0 app, 1 Footer, 2 Android, 3 Tablet, 4 USA, 5 2, 7 1, 114 1, 115 1, 169 0.02, 170 won}
{  0 site, 1 Unknown, 2 Android, 3 Phone, 4 IDN, 5 2, 6 1, 16 1, 110 1, 111 1, 169 0.14, 170 lost}
{  0 app, 1 Footer, 2 iOS, 3 Mobile_Tablet, 4 USA, 5 2, 7 1, 110 1, 116 1, 169 1.01, 170 won}
{  0 app, 1 Above_the_Fold, 2 Android, 3 Mobile_Tablet, 4 MYS, 5 2, 6 1, 112 1, 139 1, 169 0.72, 170 won}
{  0 app, 1 Above_the_Fold, 2 Android, 3 Phone, 4 IDN, 5 2, 6 1, 110 1, 111 1, 169 0.1, 170 lost}
{  0 app, 1 Footer, 2 Android, 3 Phone, 4 IDN, 5 2, 7 1, 110 1, 111 1, 169 0.13, 170 lost}
{  0 app, 1 Unknown, 2 Android, 3 Phone, 4 IDN, 5 2, 6 1, 110 1, 111 1, 169 0.13, 170 lost}
{  0 app, 1 Above_the_Fold, 2 Android, 3 Phone, 4 MYS, 5 2, 6 1, 7 1, 11 1, 15 1, 122 1, 169 0.13, 170 won}
{  0 app, 1 Above_the_Fold, 2 Android, 3 Mobile_Tablet, 4 USA, 5 2, 6 1, 125 1, 132 1, 169 0.17, 170 won}
{  0 app, 1 Unknown, 2 Android, 3 Phone, 4 USA, 5 2, 6 1, 110 1, 117 1, 169 0.25, 170 won}
{  0 app, 1 Above_the_Fold, 2 Android, 3 Phone, 4 USA, 5 2, 6 1, 112 1, 113 1, 169 0.05, 170 lost}
{  0 app, 1 Above_the_Fold, 2 Android, 3 Mobile_Tablet, 4 USA, 5 2, 6 1, 112 1, 113 1, 169 0.07, 170 lost}
{  0 app, 1 Unknown, 2 Android, 3 Mobile_Tablet, 4 IDN, 5 2, 8 1, 110 1, 111 1, 169 0.14, 170 lost}
{  0 app, 1 Above_the_Fold, 2 Android, 3 Mobile_Tablet, 4 USA, 5 2, 7 1, 12 1, 112 1, 113 1, 169 0.07, 170 lost}
{  0 app, 1 Above_the_Fold, 2 Android, 3 Mobile_Tablet, 4 IDN, 5 2, 7 1, 12 1, 116 1, 117 1, 169 0.01, 170 won}
{  0 app, 1 Footer, 2 Android, 3 Phone, 4 USA, 5 2, 7 1, 9 1, 116 1, 117 1, 169 0.41, 170 won}
{  0 app, 1 Above_the_Fold, 2 Android, 3 Phone, 4 IDN, 5 2, 6 1, 110 1, 111 1, 169 0.11, 170 lost}
{  0 app, 1 Above_the_Fold, 2 iOS, 3 Phone, 4 IDN, 5 1, 10 1, 116 1, 169 0.14, 170 won}
{  0 app, 1 Footer, 2 Android, 3 Phone, 4 IDN, 5 2, 8 1, 110 1, 111 1, 169 0.12, 170 lost}
{  0 app, 1 Above_the_Fold, 2 iOS, 3 Phone, 4 IDN, 5 1, 6 1, 116 1, 117 1, 169 0.16, 170 won}
{  0 app, 1 Above_the_Fold, 2 Android, 3 Phone, 4 IDN, 5 2, 6 1, 110 1, 111 1, 169 0.02, 170 lost}
{  0 app, 1 Above_the_Fold, 2 Android, 3 Phone, 4 IDN, 5 2, 6 1, 110 1, 111 1, 169 0.13, 170 lost}
{  0 app, 1 Above_the_Fold, 2 Android, 3 Phone, 4 IDN, 5 2, 6 1, 14 1, 110 1, 111 1, 169 0.14, 170 lost}
{  0 app, 1 Above_the_Fold, 2 iOS, 3 Mobile_Tablet, 4 USA, 5 2, 10 1, 118 1, 169 0.2, 170 lost}
{  0 site, 1 Above_the_Fold, 2 Android, 3 Mobile_Tablet, 4 USA, 5 2, 8 1, 16 1, 125 1, 132 1, 169 0.1, 170 won}
{  0 app, 1 Above_the_Fold, 2 Android, 3 Mobile_Tablet, 4 ROU, 5 2, 6 1, 111 1, 169 0.51, 170 won}
{  0 app, 1 Above_the_Fold, 2 Android, 3 Phone, 4 IDN, 5 2, 6 1, 110 1, 111 1, 169 0.11, 170 lost}
{  0 app, 1 Above_the_Fold, 2 iOS, 3 Phone, 4 IDN, 5 2, 6 1, 116 1, 117 1, 169 0.04, 170 won}
{  0 site, 1 Above_the_Fold, 2 Android, 3 Phone, 4 IDN, 5 2, 6 1, 116 1, 169 1.49, 170 won}
{  0 app, 1 Above_the_Fold, 2 iOS, 3 Tablet, 4 IDN, 5 1, 6 1, 116 1, 117 1, 169 0.16, 170 won}
{  0 app, 1 Above_the_Fold, 2 Android, 3 Phone, 4 USA, 5 2, 6 1, 112 1, 113 1, 169 0.05, 170 lost}
{  0 app, 1 Above_the_Fold, 2 iOS, 3 Phone, 4 IDN, 5 1, 6 1, 116 1, 117 1, 169 0.16, 170 won}
{  0 app, 1 Above_the_Fold, 2 Android, 3 Phone, 4 IDN, 5 2, 6 1, 110 1, 111 1, 169 0.18, 170 lost}
{  0 app, 1 Above_the_Fold, 2 Android, 3 Phone, 4 USA, 5 2, 6 1, 116 1, 117 1, 169 0.3, 170 won}
{  0 app, 1 Footer, 2 iOS, 3 Mobile_Tablet, 4 IDN, 5 2, 7 1, 116 1, 117 1, 169 0.01, 170 lost}
{  0 app, 1 Unknown, 2 iOS, 3 Mobile_Tablet, 4 USA, 5 2, 6 1, 128 1, 169 1.35, 170 won}
{  0 app, 1 Above_the_Fold, 2 Android, 3 Phone, 4 USA, 5 2, 6 1, 112 1, 113 1, 169 0.07, 170 lost}
{  0 app, 1 Unknown, 2 Android, 3 ?, 4 USA, 5 2, 8 1, 118 1, 169 0.2, 170 lost}
{  0 app, 1 Footer, 2 iOS, 3 Phone, 4 IDN, 5 1, 13 1, 116 1, 169 0.14, 170 won}
{  0 app, 1 Above_the_Fold, 2 Android, 3 Phone, 4 ZAF, 5 2, 6 1, 110 1, 169 0.02, 170 won}
{  0 app, 1 Above_the_Fold, 2 Android, 3 Mobile_Tablet, 4 IDN, 5 2, 6 1, 116 1, 117 1, 169 0.01, 170 lost}
{  0 app, 1 Above_the_Fold, 2 Android, 3 Mobile_Tablet, 4 MYS, 5 2, 6 1, 136 1, 148 1, 169 0.69, 170 won}
{  0 app, 1 Above_the_Fold, 2 iOS, 3 Mobile_Tablet, 4 USA, 5 2, 6 1, 118 1, 169 0.2, 170 lost}
{  0 app, 1 Above_the_Fold, 2 Android, 3 Phone, 4 USA, 5 2, 7 1, 112 1, 113 1, 169 0.04, 170 lost}
{  0 app, 1 Footer, 2 iOS, 3 Phone, 4 USA, 5 2, 13 1, 110 1, 130 1, 169 0.58, 170 won}
{  0 app, 1 Footer, 2 Android, 3 Tablet, 4 IDN, 5 1, 8 1, 116 1, 117 1, 169 0.61, 170 won}
{  0 app, 1 Above_the_Fold, 2 Android, 3 Mobile_Tablet, 4 USA, 5 2, 6 1, 110 1, 117 1, 169 0.25, 170 won}
{  0 app, 1 Unknown, 2 Android, 3 Phone, 4 IDN, 5 2, 6 1, 110 1, 111 1, 169 0.11, 170 lost}
{  0 app, 1 Above_the_Fold, 2 iOS, 3 Mobile_Tablet, 4 IDN, 5 1, 7 1, 12 1, 116 1, 169 0.14, 170 won}
{  0 app, 1 Above_the_Fold, 2 Android, 3 Mobile_Tablet, 4 USA, 5 2, 6 1, 114 1, 115 1, 169 0.02, 170 won}
{  0 app, 1 Unknown, 2 Android, 3 Mobile_Tablet, 4 IDN, 5 2, 8 1, 110 1, 111 1, 169 0.14, 170 lost}
{  0 app, 1 Footer, 2 Android, 3 Mobile_Tablet, 4 USA, 5 2, 13 1, 112 1, 113 1, 169 0.07, 170 lost}
{  0 app, 1 Above_the_Fold, 2 Android, 3 Tablet, 4 IDN, 5 2, 6 1, 14 1, 116 1, 169 0.35, 170 won}
{  0 app, 1 Above_the_Fold, 2 Android, 3 Tablet, 4 USA, 5 2, 10 1, 114 1, 115 1, 169 0.02, 170 lost}
{  0 app, 1 Unknown, 2 Android, 3 Tablet, 4 AUS, 5 2, 7 1, 111 1, 169 0.23, 170 lost}
{  0 site, 1 Above_the_Fold, 2 Android, 3 Phone, 4 USA, 5 2, 6 1, 114 1, 115 1, 169 0.02, 170 lost}
{  0 app, 1 Above_the_Fold, 2 Android, 3 Phone, 4 IDN, 5 2, 6 1, 110 1, 111 1, 169 0.11, 170 lost}
{  0 app, 1 Above_the_Fold, 2 Android, 3 Tablet, 4 USA, 5 2, 6 1, 114 1, 115 1, 169 0.02, 170 won}
{  0 app, 1 Unknown, 2 Android, 3 Phone, 4 USA, 5 2, 8 1, 114 1, 126 1, 169 0.31, 170 won}
{  0 app, 1 Unknown, 2 Android, 3 Phone, 4 USA, 5 2, 6 1, 112 1, 113 1, 169 0.05, 170 lost}
{  0 app, 1 Footer, 2 Android, 3 Mobile_Tablet, 4 IDN, 5 2, 7 1, 9 1, 116 1, 117 1, 169 0.06, 170 won}
{  0 app, 1 Above_the_Fold, 2 iOS, 3 Mobile_Tablet, 4 IDN, 5 1, 6 1, 116 1, 169 0.14, 170 won}
{  0 app, 1 Above_the_Fold, 2 Android, 3 Mobile_Tablet, 4 IDN, 5 2, 6 1, 116 1, 117 1, 169 0.02, 170 won}
{  0 app, 1 Above_the_Fold, 2 Android, 3 Phone, 4 USA, 5 2, 6 1, 130 1, 149 1, 169 0.63, 170 won}
{  0 app, 1 Unknown, 2 iOS, 3 Mobile_Tablet, 4 USA, 5 2, 6 1, 118 1, 169 0.1, 170 lost}
{  0 app, 1 Footer, 2 Android, 3 Mobile_Tablet, 4 IDN, 5 1, 7 1, 9 1, 122 1, 169 0.2, 170 won}
{  0 app, 1 Footer, 2 Android, 3 Phone, 4 IDN, 5 2, 7 1, 116 1, 169 1.07, 170 won}
{  0 app, 1 Below_the_Fold, 2 Android, 3 Mobile_Tablet, 4 IDN, 5 2, 7 1, 116 1, 169 0.08, 170 lost}
{  0 app, 1 Above_the_Fold, 2 Android, 3 Phone, 4 IDN, 5 2, 6 1, 110 1, 111 1, 169 0.14, 170 lost}
{  0 app, 1 Above_the_Fold, 2 Android, 3 Phone, 4 IDN, 5 2, 6 1, 110 1, 111 1, 169 0.18, 170 lost}
{  0 app, 1 Above_the_Fold, 2 Android, 3 Phone, 4 USA, 5 2, 6 1, 14 1, 114 1, 115 1, 169 0.02, 170 won}
{  0 app, 1 Unknown, 2 Windows, 3 Phone, 4 ROU, 5 1, 8 1, 111 1, 169 0.29, 170 won}
{  0 app, 1 Footer, 2 Android, 3 Phone, 4 USA, 5 2, 7 1, 114 1, 126 1, 169 0.49, 170 won}
{  0 site, 1 Unknown, 2 Android, 3 Phone, 4 IDN, 5 2, 6 1, 110 1, 111 1, 169 0.11, 170 lost}
{  0 app, 1 Above_the_Fold, 2 Android, 3 Phone, 4 IDN, 5 2, 6 1, 110 1, 111 1, 169 0.14, 170 lost}
